{
  "configVersion": 2,
  "packages": [
    {
      "name": "archive",
      "rootUri": "file:///Users/yohn/Documents/flutter/.pub-cache/hosted/pub.dartlang.org/archive-2.0.13",
      "packageUri": "lib/",
      "languageVersion": "2.0"
    },
    {
      "name": "args",
      "rootUri": "file:///Users/yohn/Documents/flutter/.pub-cache/hosted/pub.dartlang.org/args-1.6.0",
      "packageUri": "lib/",
      "languageVersion": "2.3"
    },
    {
      "name": "async",
      "rootUri": "file:///Users/yohn/Documents/flutter/.pub-cache/hosted/pub.dartlang.org/async-2.4.1",
      "packageUri": "lib/",
      "languageVersion": "2.2"
    },
    {
      "name": "auto_size_text",
      "rootUri": "file:///Users/yohn/Documents/flutter/.pub-cache/hosted/pub.dartlang.org/auto_size_text-2.1.0",
      "packageUri": "lib/",
      "languageVersion": "2.0"
    },
    {
      "name": "boolean_selector",
      "rootUri": "file:///Users/yohn/Documents/flutter/.pub-cache/hosted/pub.dartlang.org/boolean_selector-2.0.0",
      "packageUri": "lib/",
      "languageVersion": "2.4"
    },
    {
      "name": "cached_network_image",
      "rootUri": "file:///Users/yohn/Documents/flutter/.pub-cache/hosted/pub.dartlang.org/cached_network_image-2.2.0+1",
      "packageUri": "lib/",
      "languageVersion": "2.1"
    },
    {
      "name": "carousel_slider",
      "rootUri": "file:///Users/yohn/Documents/flutter/.pub-cache/hosted/pub.dartlang.org/carousel_slider-2.2.1",
      "packageUri": "lib/",
      "languageVersion": "2.6"
    },
    {
      "name": "charcode",
      "rootUri": "file:///Users/yohn/Documents/flutter/.pub-cache/hosted/pub.dartlang.org/charcode-1.1.3",
      "packageUri": "lib/",
      "languageVersion": "2.0"
    },
    {
      "name": "clock",
      "rootUri": "file:///Users/yohn/Documents/flutter/.pub-cache/hosted/pub.dartlang.org/clock-1.0.1",
      "packageUri": "lib/",
      "languageVersion": "2.0"
    },
    {
      "name": "collection",
      "rootUri": "file:///Users/yohn/Documents/flutter/.pub-cache/hosted/pub.dartlang.org/collection-1.14.12",
      "packageUri": "lib/",
      "languageVersion": "2.0"
    },
    {
      "name": "convert",
      "rootUri": "file:///Users/yohn/Documents/flutter/.pub-cache/hosted/pub.dartlang.org/convert-2.1.1",
      "packageUri": "lib/",
      "languageVersion": "1.17"
    },
    {
      "name": "crypto",
      "rootUri": "file:///Users/yohn/Documents/flutter/.pub-cache/hosted/pub.dartlang.org/crypto-2.1.4",
      "packageUri": "lib/",
      "languageVersion": "2.1"
    },
    {
      "name": "cupertino_icons",
      "rootUri": "file:///Users/yohn/Documents/flutter/.pub-cache/hosted/pub.dartlang.org/cupertino_icons-0.1.3",
      "packageUri": "lib/",
      "languageVersion": "2.0"
    },
    {
      "name": "devicelocale",
      "rootUri": "file:///Users/yohn/Documents/flutter/.pub-cache/hosted/pub.dartlang.org/devicelocale-0.3.2",
      "packageUri": "lib/",
      "languageVersion": "2.1"
    },
    {
      "name": "dio",
      "rootUri": "file:///Users/yohn/Documents/flutter/.pub-cache/hosted/pub.dartlang.org/dio-3.0.10",
      "packageUri": "lib/",
      "languageVersion": "2.4"
    },
    {
      "name": "fading_edge_scrollview",
      "rootUri": "file:///Users/yohn/Documents/flutter/.pub-cache/hosted/pub.dartlang.org/fading_edge_scrollview-1.1.4",
      "packageUri": "lib/",
      "languageVersion": "2.1"
    },
    {
      "name": "file",
      "rootUri": "file:///Users/yohn/Documents/flutter/.pub-cache/hosted/pub.dartlang.org/file-5.2.1",
      "packageUri": "lib/",
      "languageVersion": "2.2"
    },
    {
      "name": "flutter",
      "rootUri": "file:///Users/yohn/Documents/flutter/packages/flutter",
      "packageUri": "lib/",
      "languageVersion": "2.2"
    },
    {
      "name": "flutter_cache_manager",
      "rootUri": "file:///Users/yohn/Documents/flutter/.pub-cache/hosted/pub.dartlang.org/flutter_cache_manager-1.4.2",
      "packageUri": "lib/",
      "languageVersion": "2.6"
    },
    {
      "name": "flutter_inappwebview",
      "rootUri": "file:///Users/yohn/Documents/flutter/.pub-cache/hosted/pub.dartlang.org/flutter_inappwebview-4.0.0+4",
      "packageUri": "lib/",
      "languageVersion": "2.7"
    },
    {
      "name": "flutter_spinkit",
      "rootUri": "file:///Users/yohn/Documents/flutter/.pub-cache/hosted/pub.dartlang.org/flutter_spinkit-4.1.2+1",
      "packageUri": "lib/",
      "languageVersion": "2.5"
    },
    {
      "name": "flutter_test",
      "rootUri": "file:///Users/yohn/Documents/flutter/packages/flutter_test",
      "packageUri": "lib/",
      "languageVersion": "2.2"
    },
    {
      "name": "flutter_web_plugins",
      "rootUri": "file:///Users/yohn/Documents/flutter/packages/flutter_web_plugins",
      "packageUri": "lib/",
      "languageVersion": "2.0"
    },
    {
      "name": "fluttertoast",
      "rootUri": "file:///Users/yohn/Documents/flutter/.pub-cache/hosted/pub.dartlang.org/fluttertoast-7.1.1",
      "packageUri": "lib/",
      "languageVersion": "2.7"
    },
    {
      "name": "http",
      "rootUri": "file:///Users/yohn/Documents/flutter/.pub-cache/hosted/pub.dartlang.org/http-0.12.2",
      "packageUri": "lib/",
      "languageVersion": "2.4"
    },
    {
      "name": "http_parser",
      "rootUri": "file:///Users/yohn/Documents/flutter/.pub-cache/hosted/pub.dartlang.org/http_parser-3.1.4",
      "packageUri": "lib/",
      "languageVersion": "2.3"
    },
    {
      "name": "image",
      "rootUri": "file:///Users/yohn/Documents/flutter/.pub-cache/hosted/pub.dartlang.org/image-2.1.12",
      "packageUri": "lib/",
      "languageVersion": "2.0"
    },
    {
      "name": "intl",
      "rootUri": "file:///Users/yohn/Documents/flutter/.pub-cache/hosted/pub.dartlang.org/intl-0.16.1",
      "packageUri": "lib/",
      "languageVersion": "2.5"
    },
    {
      "name": "js",
      "rootUri": "file:///Users/yohn/Documents/flutter/.pub-cache/hosted/pub.dartlang.org/js-0.6.2",
      "packageUri": "lib/",
      "languageVersion": "2.0"
    },
    {
      "name": "json_annotation",
      "rootUri": "file:///Users/yohn/Documents/flutter/.pub-cache/hosted/pub.dartlang.org/json_annotation-3.0.1",
      "packageUri": "lib/",
      "languageVersion": "2.6"
    },
    {
      "name": "kakao_flutter_sdk",
      "rootUri": "file:///Users/yohn/Documents/flutter/.pub-cache/hosted/pub.dartlang.org/kakao_flutter_sdk-0.4.2",
      "packageUri": "lib/",
      "languageVersion": "2.2"
    },
    {
      "name": "launch_review",
      "rootUri": "file:///Users/yohn/Documents/flutter/.pub-cache/hosted/pub.dartlang.org/launch_review-1.0.1",
      "packageUri": "lib/",
      "languageVersion": "2.0"
    },
    {
      "name": "location",
      "rootUri": "file:///Users/yohn/Documents/flutter/.pub-cache/hosted/pub.dartlang.org/location-3.0.2",
      "packageUri": "lib/",
      "languageVersion": "2.0"
    },
    {
      "name": "location_platform_interface",
      "rootUri": "file:///Users/yohn/Documents/flutter/.pub-cache/hosted/pub.dartlang.org/location_platform_interface-1.0.0",
      "packageUri": "lib/",
      "languageVersion": "2.4"
    },
    {
      "name": "location_web",
      "rootUri": "file:///Users/yohn/Documents/flutter/.pub-cache/hosted/pub.dartlang.org/location_web-1.0.0",
      "packageUri": "lib/",
      "languageVersion": "2.1"
    },
    {
      "name": "marquee",
      "rootUri": "file:///Users/yohn/Documents/flutter/.pub-cache/hosted/pub.dartlang.org/marquee-1.6.1",
      "packageUri": "lib/",
      "languageVersion": "2.0"
    },
    {
      "name": "matcher",
      "rootUri": "file:///Users/yohn/Documents/flutter/.pub-cache/hosted/pub.dartlang.org/matcher-0.12.6",
      "packageUri": "lib/",
      "languageVersion": "2.2"
    },
    {
      "name": "meta",
      "rootUri": "file:///Users/yohn/Documents/flutter/.pub-cache/hosted/pub.dartlang.org/meta-1.1.8",
      "packageUri": "lib/",
      "languageVersion": "1.12"
    },
    {
      "name": "mime",
      "rootUri": "file:///Users/yohn/Documents/flutter/.pub-cache/hosted/pub.dartlang.org/mime-0.9.7",
      "packageUri": "lib/",
      "languageVersion": "2.0"
    },
    {
      "name": "package_info",
      "rootUri": "file:///Users/yohn/Documents/flutter/.pub-cache/hosted/pub.dartlang.org/package_info-0.4.3",
      "packageUri": "lib/",
      "languageVersion": "2.1"
    },
    {
      "name": "path",
      "rootUri": "file:///Users/yohn/Documents/flutter/.pub-cache/hosted/pub.dartlang.org/path-1.6.4",
      "packageUri": "lib/",
      "languageVersion": "2.0"
    },
    {
      "name": "path_provider",
      "rootUri": "file:///Users/yohn/Documents/flutter/.pub-cache/hosted/pub.dartlang.org/path_provider-1.6.14",
      "packageUri": "lib/",
      "languageVersion": "2.1"
    },
    {
      "name": "path_provider_linux",
      "rootUri": "file:///Users/yohn/Documents/flutter/.pub-cache/hosted/pub.dartlang.org/path_provider_linux-0.0.1+2",
      "packageUri": "lib/",
      "languageVersion": "2.1"
    },
    {
      "name": "path_provider_macos",
      "rootUri": "file:///Users/yohn/Documents/flutter/.pub-cache/hosted/pub.dartlang.org/path_provider_macos-0.0.4+3",
      "packageUri": "lib/",
      "languageVersion": "2.1"
    },
    {
      "name": "path_provider_platform_interface",
      "rootUri": "file:///Users/yohn/Documents/flutter/.pub-cache/hosted/pub.dartlang.org/path_provider_platform_interface-1.0.3",
      "packageUri": "lib/",
      "languageVersion": "2.1"
    },
    {
      "name": "pedantic",
      "rootUri": "file:///Users/yohn/Documents/flutter/.pub-cache/hosted/pub.dartlang.org/pedantic-1.9.0",
      "packageUri": "lib/",
      "languageVersion": "2.1"
    },
    {
      "name": "permission_handler",
      "rootUri": "file:///Users/yohn/Documents/flutter/.pub-cache/hosted/pub.dartlang.org/permission_handler-3.3.0",
      "packageUri": "lib/",
      "languageVersion": "2.1"
    },
    {
      "name": "petitparser",
      "rootUri": "file:///Users/yohn/Documents/flutter/.pub-cache/hosted/pub.dartlang.org/petitparser-2.4.0",
      "packageUri": "lib/",
      "languageVersion": "2.4"
    },
    {
      "name": "platform",
      "rootUri": "file:///Users/yohn/Documents/flutter/.pub-cache/hosted/pub.dartlang.org/platform-2.2.1",
      "packageUri": "lib/",
      "languageVersion": "1.24"
    },
    {
      "name": "platform_detect",
      "rootUri": "file:///Users/yohn/Documents/flutter/.pub-cache/hosted/pub.dartlang.org/platform_detect-1.4.0",
      "packageUri": "lib/",
      "languageVersion": "2.4"
    },
    {
      "name": "plugin_platform_interface",
      "rootUri": "file:///Users/yohn/Documents/flutter/.pub-cache/hosted/pub.dartlang.org/plugin_platform_interface-1.0.2",
      "packageUri": "lib/",
      "languageVersion": "2.1"
    },
    {
      "name": "preload_page_view",
      "rootUri": "file:///Users/yohn/Documents/flutter/.pub-cache/hosted/pub.dartlang.org/preload_page_view-0.1.4",
      "packageUri": "lib/",
      "languageVersion": "2.1"
    },
    {
      "name": "process",
      "rootUri": "file:///Users/yohn/Documents/flutter/.pub-cache/hosted/pub.dartlang.org/process-3.0.13",
      "packageUri": "lib/",
      "languageVersion": "2.0"
    },
    {
      "name": "provider",
      "rootUri": "file:///Users/yohn/Documents/flutter/.pub-cache/hosted/pub.dartlang.org/provider-3.2.0",
      "packageUri": "lib/",
      "languageVersion": "2.0"
    },
    {
      "name": "pub_semver",
      "rootUri": "file:///Users/yohn/Documents/flutter/.pub-cache/hosted/pub.dartlang.org/pub_semver-1.4.4",
      "packageUri": "lib/",
      "languageVersion": "2.0"
    },
    {
      "name": "pull_to_refresh",
      "rootUri": "file:///Users/yohn/Documents/flutter/.pub-cache/hosted/pub.dartlang.org/pull_to_refresh-1.6.1",
      "packageUri": "lib/",
      "languageVersion": "2.1"
    },
    {
      "name": "quiver",
      "rootUri": "file:///Users/yohn/Documents/flutter/.pub-cache/hosted/pub.dartlang.org/quiver-2.1.3",
      "packageUri": "lib/",
      "languageVersion": "2.0"
    },
    {
      "name": "rxdart",
      "rootUri": "file:///Users/yohn/Documents/flutter/.pub-cache/hosted/pub.dartlang.org/rxdart-0.24.1",
      "packageUri": "lib/",
      "languageVersion": "2.6"
    },
    {
      "name": "shared_preferences",
      "rootUri": "file:///Users/yohn/Documents/flutter/.pub-cache/hosted/pub.dartlang.org/shared_preferences-0.5.10",
      "packageUri": "lib/",
      "languageVersion": "2.1"
    },
    {
      "name": "shared_preferences_linux",
      "rootUri": "file:///Users/yohn/Documents/flutter/.pub-cache/hosted/pub.dartlang.org/shared_preferences_linux-0.0.2+2",
      "packageUri": "lib/",
      "languageVersion": "2.1"
    },
    {
      "name": "shared_preferences_macos",
      "rootUri": "file:///Users/yohn/Documents/flutter/.pub-cache/hosted/pub.dartlang.org/shared_preferences_macos-0.0.1+10",
      "packageUri": "lib/",
      "languageVersion": "2.1"
    },
    {
      "name": "shared_preferences_platform_interface",
      "rootUri": "file:///Users/yohn/Documents/flutter/.pub-cache/hosted/pub.dartlang.org/shared_preferences_platform_interface-1.0.4",
      "packageUri": "lib/",
      "languageVersion": "2.1"
    },
    {
      "name": "shared_preferences_web",
      "rootUri": "file:///Users/yohn/Documents/flutter/.pub-cache/hosted/pub.dartlang.org/shared_preferences_web-0.1.2+7",
      "packageUri": "lib/",
      "languageVersion": "2.1"
    },
    {
      "name": "sky_engine",
      "rootUri": "file:///Users/yohn/Documents/flutter/bin/cache/pkg/sky_engine",
      "packageUri": "lib/",
      "languageVersion": "1.11"
    },
    {
      "name": "source_span",
      "rootUri": "file:///Users/yohn/Documents/flutter/.pub-cache/hosted/pub.dartlang.org/source_span-1.7.0",
      "packageUri": "lib/",
      "languageVersion": "2.6"
    },
    {
      "name": "sqflite",
      "rootUri": "file:///Users/yohn/Documents/flutter/.pub-cache/hosted/pub.dartlang.org/sqflite-1.3.1+1",
      "packageUri": "lib/",
      "languageVersion": "2.7"
    },
    {
      "name": "sqflite_common",
      "rootUri": "file:///Users/yohn/Documents/flutter/.pub-cache/hosted/pub.dartlang.org/sqflite_common-1.0.2+1",
      "packageUri": "lib/",
      "languageVersion": "2.7"
    },
    {
      "name": "stack_trace",
      "rootUri": "file:///Users/yohn/Documents/flutter/.pub-cache/hosted/pub.dartlang.org/stack_trace-1.9.3",
      "packageUri": "lib/",
      "languageVersion": "1.23"
    },
    {
      "name": "stream_channel",
      "rootUri": "file:///Users/yohn/Documents/flutter/.pub-cache/hosted/pub.dartlang.org/stream_channel-2.0.0",
      "packageUri": "lib/",
      "languageVersion": "2.0"
    },
    {
      "name": "string_scanner",
      "rootUri": "file:///Users/yohn/Documents/flutter/.pub-cache/hosted/pub.dartlang.org/string_scanner-1.0.5",
      "packageUri": "lib/",
      "languageVersion": "2.0"
    },
    {
      "name": "synchronized",
      "rootUri": "file:///Users/yohn/Documents/flutter/.pub-cache/hosted/pub.dartlang.org/synchronized-2.2.0+2",
      "packageUri": "lib/",
      "languageVersion": "2.8"
    },
    {
      "name": "term_glyph",
      "rootUri": "file:///Users/yohn/Documents/flutter/.pub-cache/hosted/pub.dartlang.org/term_glyph-1.1.0",
      "packageUri": "lib/",
      "languageVersion": "1.8"
    },
    {
      "name": "test_api",
      "rootUri": "file:///Users/yohn/Documents/flutter/.pub-cache/hosted/pub.dartlang.org/test_api-0.2.15",
      "packageUri": "lib/",
      "languageVersion": "2.4"
    },
    {
      "name": "typed_data",
      "rootUri": "file:///Users/yohn/Documents/flutter/.pub-cache/hosted/pub.dartlang.org/typed_data-1.1.6",
      "packageUri": "lib/",
      "languageVersion": "2.0"
    },
    {
      "name": "url_launcher",
      "rootUri": "file:///Users/yohn/Documents/flutter/.pub-cache/hosted/pub.dartlang.org/url_launcher-5.5.3",
      "packageUri": "lib/",
      "languageVersion": "2.1"
    },
    {
      "name": "url_launcher_linux",
      "rootUri": "file:///Users/yohn/Documents/flutter/.pub-cache/hosted/pub.dartlang.org/url_launcher_linux-0.0.1+1",
      "packageUri": "lib/",
      "languageVersion": "2.1"
    },
    {
      "name": "url_launcher_macos",
      "rootUri": "file:///Users/yohn/Documents/flutter/.pub-cache/hosted/pub.dartlang.org/url_launcher_macos-0.0.1+7",
      "packageUri": "lib/",
      "languageVersion": "2.1"
    },
    {
      "name": "url_launcher_platform_interface",
      "rootUri": "file:///Users/yohn/Documents/flutter/.pub-cache/hosted/pub.dartlang.org/url_launcher_platform_interface-1.0.8",
      "packageUri": "lib/",
      "languageVersion": "2.1"
    },
    {
      "name": "url_launcher_web",
      "rootUri": "file:///Users/yohn/Documents/flutter/.pub-cache/hosted/pub.dartlang.org/url_launcher_web-0.1.3+2",
      "packageUri": "lib/",
      "languageVersion": "2.2"
    },
    {
      "name": "uuid",
      "rootUri": "file:///Users/yohn/Documents/flutter/.pub-cache/hosted/pub.dartlang.org/uuid-2.2.2",
      "packageUri": "lib/",
      "languageVersion": "2.2"
    },
    {
      "name": "vector_math",
      "rootUri": "file:///Users/yohn/Documents/flutter/.pub-cache/hosted/pub.dartlang.org/vector_math-2.0.8",
      "packageUri": "lib/",
      "languageVersion": "2.0"
    },
    {
      "name": "video_player",
      "rootUri": "file:///Users/yohn/Documents/flutter/.pub-cache/hosted/pub.dartlang.org/video_player-0.10.12+2",
      "packageUri": "lib/",
      "languageVersion": "2.1"
    },
    {
      "name": "video_player_platform_interface",
      "rootUri": "file:///Users/yohn/Documents/flutter/.pub-cache/hosted/pub.dartlang.org/video_player_platform_interface-2.1.1",
      "packageUri": "lib/",
      "languageVersion": "2.1"
    },
    {
      "name": "video_player_web",
      "rootUri": "file:///Users/yohn/Documents/flutter/.pub-cache/hosted/pub.dartlang.org/video_player_web-0.1.3+2",
      "packageUri": "lib/",
      "languageVersion": "2.1"
    },
    {
      "name": "xdg_directories",
      "rootUri": "file:///Users/yohn/Documents/flutter/.pub-cache/hosted/pub.dartlang.org/xdg_directories-0.1.0",
      "packageUri": "lib/",
      "languageVersion": "2.3"
    },
    {
      "name": "xml",
      "rootUri": "file:///Users/yohn/Documents/flutter/.pub-cache/hosted/pub.dartlang.org/xml-3.6.1",
      "packageUri": "lib/",
      "languageVersion": "2.6"
    },
    {
      "name": "mergepoint",
      "rootUri": "../",
      "packageUri": "lib/",
      "languageVersion": "2.7"
    }
  ],
  "generated": "2020-09-16T01:50:00.866393Z",
  "generator": "pub",
  "generatorVersion": "2.8.4"
}
